{
    "Projects": [
        {
            "name": "Plapers",
            "desc": "Tienda en línea para creación de placas personalizadas. (En construcción)",
            "link": "http://plapers.triciclostudio.com/",
            "img": "plapers.png",
            "type": "WEB",
            "stack": ["Codeigniter", "Vue", "Bootstrap"],
            "status": "active"
        },
        {
            "name": "Sanders y Mantilla",
            "desc": "Página para empresa de traducción.",
            "link": "https://sandersymantilla.com/",
            "img": "sanders.PNG",
            "type": "WEB",
            "stack": ["Laravel", "Bootstrap"],
            "status": "active"
        },
        {
            "name": "Control Escolar",
            "desc": "Sistema de control escolar para administrar profesores, horarios, entradas y salidas.",
            "link": "#",
            "img": "acceso.png",
            "type": "SIST",
            "stack": ["Handlebars", "PHP", "Bootstrap"],
            "status": "active"
        },
        {
            "name": "Macanchis",
            "desc": "Proyecto demo para  para demostrar cómo se utiliza React en la empresa Technogi México",
            "link": "https://delebrindel.github.io/macanchis/",
            "img": "macanchis.png",
            "type": "SIST",
            "stack": ["React", "Node"],
            "status": "active"
        },
        {
            "name": "Curso de Angular",
            "desc": "Curso para demostrar cómo se utiliza Angular en la empresa Technogi México",
            "link": "https://gitlab.com/delebrindel/angular-course",
            "img": "angular.png",
            "type": "SIST",
            "stack": ["Angular", "Node"],
            "status": "active"
        },
        {
            "name": "Cuestionario",
            "desc": "Cuestionario para evaluaciones con retroalimentación instantánea.",
            "link": "https://www.redconsultores.mx/",
            "img": "cuestionario.png",
            "type": "SIST",
            "stack": ["Handlebars", "Javascript", "PHP", "Bootstrap"],
            "status": "active"
        },
        {
            "name": "Monster Combat",
            "desc": "Minijuego realizado para demostrar funcionalidades con VueJS.",
            "link": "https://delebrindel.github.io/minigame/",
            "img": "monster.png",
            "type": "MISC",
            "stack": ["Vue", "Javascript", "Bulma"],
            "status": "active"
        },
        {
            "name": "Academia",
            "desc": "Plataforma del eneagrama, aplicación de prueba y descripción de los eneatipos.",
            "link": "#",
            "img": "academia.png",
            "type": "WEB",
            "stack": ["Laravel", "Vue"],
            "status": "inactive"
        }
    ]
}
